STAT/COMP 212 - Advanced Spatial Visualizations
…
The community is moving away from using older sp classes to sf classes. It is useful for you to know that the older versions exist, but we will stick with the sf classes.

sfc objects are modern, general versions of the spatial geometries from the sp package with a bbox, CRS, and many geometries available.

sf objects are data.frame-like objects with a geometry column of class sfc.

mn_cities

Simple feature collection with 1081 features and 8 fields
Geometry type: POINT
Dimension:     XY
Bounding box:  xmin: 190832.6 ymin: 4816672 xmax: 747463.4 ymax: 5468045
Projected CRS: NAD83 / UTM zone 15N
# A tibble: 1,081 × 9
      GNIS Name        CTU_Type County      FIPS_Code Sym_Class Population Notes
     <dbl> <chr>       <chr>    <chr>       <chr>     <chr>          <dbl> <chr>
 1 2393879 Ada         City     Norman Cou… 27107001… County S…       1681 <NA> 
 2 2393881 Adams       City     Mower Coun… 27099001… Small Ci…        742 <NA> 
 3 2393884 Adrian      City     Nobles Cou… 27105002… Small Ci…       1278 <NA> 
 4 2393887 Afton       City     Washington… 27163003… Small Ci…       2932 <NA> 
 5 2393894 Aitkin      City     Aitkin Cou… 27001004… County S…       2279 <NA> 
 6 2393895 Akeley      City     Hubbard Co… 27057004… Small Ci…        397 <NA> 
 7 2393898 Albany      City     Stearns Co… 27145006… Small Ci…       2618 <NA> 
 8 2393902 Albert Lea  City     Freeborn C… 27047006… County S…      17843 <NA> 
 9 2393903 Alberta     City     Stevens Co… 27149006… Small Ci…        122 <NA> 
10 2393904 Albertville City     Wright Cou… 27171007… Small Ci…       7226 <NA> 
# ℹ 1,071 more rows
# ℹ 1 more variable: geometry <POINT [m]>
…
