STAT/COMP 212 - Wrangling: numerics, logicals, dates
…
lakers_clean <- lakers %>%
    mutate(
        year = year(date),
        month = month(date),
        day = day(date),
        day_of_week = wday(date, label = TRUE),
        minute = minute(time),
        second = second(time)
    )
lakers_clean %>% select(year:second)

# A tibble: 34,624 × 6
    year month   day day_of_week minute second
   <dbl> <dbl> <int> <ord>        <dbl>  <dbl>
 1  2008    10    28 Tue              0      0
 2  2008    10    28 Tue             39      0
 3  2008    10    28 Tue             37      0
 4  2008    10    28 Tue             25      0
 5  2008    10    28 Tue             23      0
 6  2008    10    28 Tue             22      0
 7  2008    10    28 Tue             22      0
 8  2008    10    28 Tue             22      0
 9  2008    10    28 Tue              0      0
10  2008    10    28 Tue             53      0
# ℹ 34,614 more rows

lakers_clean <- lakers_clean %>%
    group_by(date, opponent, period) %>%
    arrange(date, opponent, period, desc(time)) %>%
    mutate(
        diff_btw_plays_sec = as.numeric(time - lag(time, 1))
    )
lakers_clean %>% select(date, opponent, time, period, diff_btw_plays_sec)

# A tibble: 34,624 × 5
# Groups:   date, opponent, period [314]
   date       opponent time       period diff_btw_plays_sec
   <date>     <chr>    <Period>    <int>              <dbl>
 1 2008-10-28 POR      12H 0M 0S       1                 NA
 2 2008-10-28 POR      11H 39M 0S      1              -1260
 3 2008-10-28 POR      11H 37M 0S      1               -120
 4 2008-10-28 POR      11H 25M 0S      1               -720
 5 2008-10-28 POR      11H 23M 0S      1               -120
 6 2008-10-28 POR      11H 22M 0S      1                -60
 7 2008-10-28 POR      11H 22M 0S      1                  0
 8 2008-10-28 POR      11H 22M 0S      1                  0
 9 2008-10-28 POR      11H 0M 0S       1              -1320
10 2008-10-28 POR      10H 53M 0S      1               -420
# ℹ 34,614 more rows
…
