STAT/COMP 212 - Wrangling: strings and factors
…
str_extract() - return portion of each string that matches the regex

str_replace_{all}() - replace portion of string that matches the regex with something else

str_remove_{all}() - like `str_replace(x, the_pattern, ““)

glue package

library(glue)
msleep %>%
  mutate(description = glue("The {name} typically sleeps for {sleep_total * 60} minutes and is awake for {awake * 60} minutes each day.")) %>% 
  select(name, sleep_total, awake, description)

# A tibble: 83 × 4
   name                       sleep_total awake description                     
   <chr>                            <dbl> <dbl> <glue>                          
 1 Cheetah                           12.1  11.9 The Cheetah typically sleeps fo…
 2 Owl monkey                        17     7   The Owl monkey typically sleeps…
 3 Mountain beaver                   14.4   9.6 The Mountain beaver typically s…
 4 Greater short-tailed shrew        14.9   9.1 The Greater short-tailed shrew …
 5 Cow                                4    20   The Cow typically sleeps for 24…
 6 Three-toed sloth                  14.4   9.6 The Three-toed sloth typically …
 7 Northern fur seal                  8.7  15.3 The Northern fur seal typically…
 8 Vesper mouse                       7    17   The Vesper mouse typically slee…
 9 Dog                               10.1  13.9 The Dog typically sleeps for 60…
10 Roe deer                           3    21   The Roe deer typically sleeps f…
# ℹ 73 more rows
…
