STAT/COMP 212 - Wrangling: factors
…
    mutate(
        partyid = fct_recode(partyid,
            "Republican, strong"    = "Strong republican",
            "Republican, weak"      = "Not str republican",
            "Independent, near rep" = "Ind,near rep",
            "Independent, near dem" = "Ind,near dem",
            "Democrat, weak"        = "Not str democrat",
            "Democrat, strong"      = "Strong democrat",
            "Other"                 = "No answer",
            "Other"                 = "Don't know",
            "Other"                 = "Other party"
        )
    )

# A tibble: 21,483 × 9
    year marital         age race  rincome        partyid    relig denom tvhours
   <int> <fct>         <int> <fct> <fct>          <fct>      <fct> <fct>   <int>
 1  2000 Never married    26 White $8000 to 9999  Independe… Prot… Sout…      12
 2  2000 Divorced         48 White $8000 to 9999  Republica… Prot… Bapt…      NA
 3  2000 Widowed          67 White Not applicable Independe… Prot… No d…       2
 4  2000 Never married    39 White Not applicable Independe… Orth… Not …       4
 5  2000 Divorced         25 White Not applicable Democrat,… None  Not …       1
 6  2000 Married          25 White $20000 - 24999 Democrat,… Prot… Sout…      NA
 7  2000 Never married    36 White $25000 or more Republica… Chri… Not …       3
 8  2000 Divorced         44 White $7000 to 7999  Independe… Prot… Luth…      NA
 9  2000 Married          44 White $25000 or more Democrat,… Prot… Other       0
10  2000 Married          47 White $25000 or more Republica… Prot… Sout…       3
# ℹ 21,473 more rows
…
