STAT/COMP 212 - Functions and control structures
…
count_prop(diamonds, count_vars = cut)

# A tibble: 5 × 3
  cut           n   prop
  <ord>     <int>  <dbl>
1 Fair       1610 0.0298
2 Good       4906 0.0910
3 Very Good 12082 0.224 
4 Premium   13791 0.256 
5 Ideal     21551 0.400 

count_prop(diamonds, count_vars = c(cut, color))

# A tibble: 35 × 4
   cut   color     n    prop
   <ord> <ord> <int>   <dbl>
 1 Fair  D       163 0.00302
 2 Fair  E       224 0.00415
 3 Fair  F       312 0.00578
 4 Fair  G       314 0.00582
 5 Fair  H       303 0.00562
 6 Fair  I       175 0.00324
 7 Fair  J       119 0.00221
 8 Good  D       662 0.0123 
 9 Good  E       933 0.0173 
10 Good  F       909 0.0169 
# ℹ 25 more rows
…
