STAT/COMP 212 - Missing data (Part 1)
…
# A tibble: 6 × 3
  variable n_miss pct_miss
  <chr>     <int>    <dbl>
1 Ozone        37    24.2 
2 Solar.R       7     4.58
3 Wind          0     0   
4 Temp          0     0   
5 Month         0     0   
6 Day           0     0   

We can explore missingness by case with miss_case_summary(). For each case, this function calculates the number and percentage of variables with a missing value. If the pct_miss column is large for a case, we likely won’t be able to impute its missing values because there just isn’t enough known information.

miss_case_summary(airquality)

# A tibble: 153 × 3
    case n_miss pct_miss
   <int>  <int>    <dbl>
 1     5      2     33.3
 2    27      2     33.3
 3     6      1     16.7
 4    10      1     16.7
 5    11      1     16.7
 6    25      1     16.7
 7    26      1     16.7
 8    32      1     16.7
 9    33      1     16.7
10    34      1     16.7
# ℹ 143 more rows
…
